<svg version="1.1" id="Layer_1" xmlns="http://www.w3.org/2000/svg" xmlns:xlink="http://www.w3.org/1999/xlink" x="0px" y="0px"
	 width="23.228px" height="17.333px" viewBox="0 0 23.228 17.333" enable-background="new 0 0 23.228 17.333" xml:space="preserve">
<polygon fill="#55565A" points="10.998,0 10.998,3.285 15.486,5.924 18.067,7.303 15.456,7.274 0,7.274 0,10.06 15.456,10.06 
	18.067,10.03 15.486,11.409 10.998,14.049 10.998,17.333 23.228,9.796 23.228,7.538 "/>
</svg>
