<svg version="1.1" id="Layer_1" xmlns="http://www.w3.org/2000/svg" xmlns:xlink="http://www.w3.org/1999/xlink" x="0px" y="0px"
	 width="648.069px" height="2px" viewBox="0 0 648.069 2" enable-background="new 0 0 648.069 2" xml:space="preserve">
<g>
	<g>
		<line fill="none" stroke="#FFFFFF" stroke-width="2" stroke-linejoin="round" x1="0" y1="1" x2="3.5" y2="1"/>
		
			<line fill="none" stroke="#FFFFFF" stroke-width="2" stroke-linejoin="round" stroke-dasharray="7.0447,7.0447" x1="10.545" y1="1" x2="641.047" y2="1"/>
		<line fill="none" stroke="#FFFFFF" stroke-width="2" stroke-linejoin="round" x1="644.569" y1="1" x2="648.069" y2="1"/>
	</g>
</g>
</svg>
